<?xml version="1.0" encoding="UTF-8"?>
<svg width="20px" height="19px" viewBox="0 0 20 19" version="1.1" xmlns="http://www.w3.org/2000/svg" xmlns:xlink="http://www.w3.org/1999/xlink">
    <!-- Generator: sketchtool 51.3 (57544) - http://www.bohemiancoding.com/sketch -->
    <title>6B6176A3-5071-4CF1-AF82-EA7FC8220325@2x</title>
    <desc>Created with sketchtool.</desc>
    <defs></defs>
    <g id="Page-1" stroke="none" stroke-width="1" fill="none" fill-rule="evenodd">
        <g id="Desktop-Copy-2" transform="translate(-273.000000, -282.000000)" fill="#D0021B" fill-rule="nonzero">
            <g id="Group-2-Copy" transform="translate(273.000000, 279.000000)">
                <path d="M14.5,3 C12.76,3 11.09,3.81 10,5.09 C8.91,3.81 7.24,3 5.5,3 C2.42,3 0,5.42 0,8.5 C0,12.28 3.4,15.36 8.55,20.04 L10,21.35 L11.45,20.03 C16.6,15.36 20,12.28 20,8.5 C20,5.42 17.58,3 14.5,3 Z" id="Shape"></path>
            </g>
        </g>
    </g>
</svg>